<svg xmlns="http://www.w3.org/2000/svg" width="21.311" height="18.47" viewBox="0 0 21.311 18.47">
  <path id="Path_841" data-name="Path 841" d="M19.435,9.417A7.112,7.112,0,0,0,12.366,3H10.945A7.112,7.112,0,0,0,3.876,9.417,3.1,3.1,0,0,0,1,12.5v2.312a3.11,3.11,0,0,0,3.106,3.106H5.973a.71.71,0,0,0,.71-.71V10.1a.71.71,0,0,0-.71-.71H5.311a5.689,5.689,0,0,1,5.634-4.973h1.421A5.689,5.689,0,0,1,18,9.393h-.661a.71.71,0,0,0-.71.71v7.1a.71.71,0,0,0,.71.71h.609a2.841,2.841,0,0,1-2.741,2.131H13.787v-.71a.71.71,0,1,0-1.421,0v1.421a.71.71,0,0,0,.71.71h2.131a4.262,4.262,0,0,0,4.2-3.572,3.1,3.1,0,0,0,2.9-3.086V12.5a3.1,3.1,0,0,0-2.876-3.083ZM5.262,16.5H4.106a1.687,1.687,0,0,1-1.686-1.686V12.5a1.687,1.687,0,0,1,1.686-1.686H5.262ZM20.89,14.811A1.687,1.687,0,0,1,19.2,16.5H18.049V10.814H19.2A1.687,1.687,0,0,1,20.89,12.5Z" transform="translate(-1 -3)" fill="#e67a00"/>
</svg>
